{
    "coord": {
        "lon": 65.5272,
        "lat": 57.1522
    },
    "weather": [
        {
            "id": 800,
            "main": "Clear",
            "description": "clear sky",
            "icon": "01n"
        }
    ],
    "base": "stations",
    "main": {
        "temp": 270.01,
        "feels_like": 264.31,
        "temp_min": 270.01,
        "temp_max": 272.2,
        "pressure": 1019,
        "humidity": 49
    },
    "visibility": 10000,
    "wind": {
        "speed": 5,
        "deg": 340
    },
    "clouds": {
        "all": 0
    },
    "dt": 1650555768,
    "sys": {
        "type": 2,
        "id": 49589,
        "country": "RU",
        "sunrise": 1650500066,
        "sunset": 1650553109
    },
    "timezone": 18000,
    "id": 1488754,
    "name": "Tyumen",
    "cod": 200
}